farsdata-tutorial
…
3. fars_read_years function subsets data based on year

data <- fars_read_years(2015)
data
#> [[1]]
#> # A tibble: 32,166 x 2
#>    MONTH  year
#>    <dbl> <dbl>
#>  1     1  2015
#>  2     1  2015
#>  3     1  2015
#>  4     1  2015
#>  5     1  2015
#>  6     1  2015
#>  7     1  2015
#>  8     1  2015
#>  9     1  2015
#> 10     1  2015
#> # ... with 32,156 more rows
…
